<?xml version="1.0" encoding="UTF-8"?>
<svg width="58px" height="96px" viewBox="0 0 58 96" version="1.1" xmlns="http://www.w3.org/2000/svg" xmlns:xlink="http://www.w3.org/1999/xlink">
    <title>jump</title>
    <desc>Created with Sketch.</desc>
    <g id="icon-group" fill-rule="nonzero">
        <path d="M50.4,27.5 C51.3,27.1 51.9,26.3 52.2,25.4 L57.1,8.4 C57.6,6.6 56.6,4.7 54.8,4.2 C53,3.7 51.1,4.7 50.6,6.5 L46.1,22.1 L37.1,26.6 L20.9,26.6 L11.9,22.1 L7.4,6.5 C6.9,4.7 5,3.7 3.2,4.2 C1.4,4.7 0.4,6.6 0.9,8.4 L5.8,25.4 C6.1,26.3 6.7,27.1 7.6,27.5 L18.6,33 C18.8,33.1 18.9,33.1 19.1,33.2 L16.7,60.1 C16.6,61.7 17.5,63 18.8,63.6 L14.1,74.4 C13.5,75.8 13.9,77.4 15,78.4 L25.7,87.3 L23.9,90.3 C22.9,91.9 23.4,94 25,95 C25.6,95.3 26.2,95.5 26.8,95.5 C27.9,95.5 29.1,94.9 29.7,93.9 L33.1,88.4 C34,87 33.7,85.1 32.4,84 L21.4,74.9 L26.1,64 L31.5,64 L36.2,77 C36.7,78.5 38.3,79.4 39.8,79.2 L49,78 L49.7,81.5 C50,83.1 51.4,84.2 53,84.2 C53.2,84.2 53.5,84.2 53.7,84.1 C55.5,83.7 56.7,81.9 56.4,80.1 L55.1,73.5 C54.7,71.7 53.1,70.6 51.3,70.8 L41.7,72.1 L38.7,63.7 C40.3,63.2 41.4,61.7 41.2,60 L38.8,33.1 C39,33 39.2,33 39.3,32.9 L50.4,27.5 Z" id="Path"></path>
        <circle id="Oval" cx="29" cy="12" r="11.5"></circle>
    </g>
</svg>